{
  "name": "MeetingDoctorsServicesSDK",
  "version": "4.1.2-beta.3",
  "summary": "MeetingDoctorsServicesSDK Framework for iOS",
  "authors": {
    "MeetingDoctors, S.L.": "info@meetingdoctors.com"
  },
  "license": {
    "type": "Copyright",
    "text": "Copyright © 2022 MeetingDoctors S.L. All rights reserved."
  },
  "source": {
    "http": "https://sdk-download.meetingdoctors.com/iOS/MeetingDoctorsServicesSDK/4.1.2-beta.3/MeetingDoctorsServicesSDK_4.1.2-beta.3.zip"
  },
  "homepage": "https://www.meetingdoctors.com",
  "platforms": {
    "ios": "11.0"
  },
  "swift_versions": "5.5",
  "module_name": "MeetingDoctorsServicesSDK",
  "ios": {
    "frameworks": [
      "Foundation",
      "CoreLocation",
      "UIKit"
    ],
    "vendored_frameworks": "MeetingDoctors/MeetingDoctorsServicesSDK.xcframework",
    "dependencies": {
      "MeetingDoctors-Core": [
        "4.2.7-beta.2"
      ],
      "MeetingDoctors-Schema": [
        "4.2.7-beta.2"
      ],
      "MeetingDoctors-Controller": [
        "4.2.7-beta.2"
      ],
      "MeetingDoctors-Storage": [
        "4.2.7-beta.2"
      ],
      "MeetingDoctors-Remote": [
        "4.2.7-beta.2"
      ],
      "AlamofireObjectMapper": [
        "~> 5.2.1"
      ],
      "SwiftyJSON": [
        "~> 4.0.0"
      ]
    }
  },
  "pod_target_xcconfig": {
    "EXCLUDED_ARCHS[sdk=iphonesimulator*]": "arm64",
    "BUILD_LIBRARY_FOR_DISTRIBUTION": "YES"
  },
  "user_target_xcconfig": {
    "EXCLUDED_ARCHS[sdk=iphonesimulator*]": "arm64",
    "BUILD_LIBRARY_FOR_DISTRIBUTION": "YES"
  },
  "swift_version": "5.5"
}
