{
  "name": "MeetingDoctors-Storage",
  "version": "5.4.1-beta.7",
  "summary": "MeetingDoctorsSDK Storage Framework for iOS",
  "authors": {
    "MeetingDoctors, S.L.": "info@meetingdoctors.com"
  },
  "license": {
    "type": "Copyright",
    "text": "Copyright © 2022 MeetingDoctors S.L. All rights reserved."
  },
  "source": {
    "http": "https://sdk-download.meetingdoctors.com/iOS/MeetingDoctorsSDK/5.4.1-beta.7/MeetingDoctorsSDK_5.4.1-beta.7.zip"
  },
  "homepage": "https://www.meetingdoctors.com",
  "platforms": {
    "ios": "13.0"
  },
  "swift_versions": "5.7",
  "module_name": "MeetingDoctorsStorage",
  "ios": {
    "frameworks": [
      "Foundation",
      "CoreLocation",
      "UIKit"
    ],
    "vendored_frameworks": "MeetingDoctors/MeetingDoctorsStorage.xcframework",
    "dependencies": {
      "MeetingDoctors-Core": [
        "5.4.1-beta.7"
      ],
      "MeetingDoctors-Schema": [
        "5.4.1-beta.7"
      ],
      "MeetingDoctors-Controller": [
        "5.4.1-beta.7"
      ],
      "MeetingDoctors-Socket": [
        "5.4.1-beta.7"
      ],
      "RealmSwift": [
        "10.17.0"
      ]
    }
  },
  "pod_target_xcconfig": {
    "EXCLUDED_ARCHS[sdk=iphonesimulator*]": "arm64",
    "BUILD_LIBRARY_FOR_DISTRIBUTION": "YES"
  },
  "user_target_xcconfig": {
    "EXCLUDED_ARCHS[sdk=iphonesimulator*]": "arm64",
    "BUILD_LIBRARY_FOR_DISTRIBUTION": "YES"
  },
  "swift_version": "5.7"
}
