{
  "name": "MeetingDoctors-Remote",
  "version": "5.4.7-beta.4",
  "summary": "MeetingDoctorsSDK Remote Framework for iOS",
  "authors": {
    "MeetingDoctors, S.L.": "info@meetingdoctors.com"
  },
  "license": {
    "type": "Copyright",
    "text": "Copyright © 2022 MeetingDoctors S.L. All rights reserved."
  },
  "source": {
    "http": "https://sdk-download.meetingdoctors.com/iOS/MeetingDoctorsSDK/5.4.7-beta.4/MeetingDoctorsSDK_5.4.7-beta.4.zip"
  },
  "homepage": "https://www.meetingdoctors.com",
  "platforms": {
    "ios": "13.0"
  },
  "swift_versions": "5.7",
  "module_name": "MeetingDoctorsRemote",
  "ios": {
    "frameworks": [
      "Foundation",
      "UIKit"
    ],
    "vendored_frameworks": "MeetingDoctors/MeetingDoctorsRemote.xcframework",
    "dependencies": {
      "MeetingDoctors-Core": [
        "5.4.7-beta.4"
      ],
      "MeetingDoctors-Schema": [
        "5.4.7-beta.4"
      ],
      "MeetingDoctors-Controller": [
        "5.4.7-beta.4"
      ]
    }
  },
  "pod_target_xcconfig": {
    "BUILD_LIBRARY_FOR_DISTRIBUTION": "YES"
  },
  "user_target_xcconfig": {
    "BUILD_LIBRARY_FOR_DISTRIBUTION": "YES"
  },
  "swift_version": "5.7"
}
