{
  "name": "MeetingDoctors-Core",
  "version": "5.5.7-beta.8",
  "summary": "MeetingDoctorsSDK Core Framework for iOS",
  "authors": {
    "MeetingDoctors, S.L.": "info@meetingdoctors.com"
  },
  "license": {
    "type": "Copyright",
    "text": "Copyright © 2022 MeetingDoctors S.L. All rights reserved."
  },
  "source": {
    "http": "https://sdk-download.meetingdoctors.com/iOS/MeetingDoctorsSDK/5.5.7-beta.8/MeetingDoctorsCore.xcframework.zip"
  },
  "homepage": "https://www.meetingdoctors.com",
  "platforms": {
    "ios": "13.0"
  },
  "swift_versions": "5.7",
  "module_name": "MeetingDoctorsCore",
  "ios": {
    "frameworks": [
      "Foundation",
      "UIKit",
      "CoreLocation",
      "AVFoundation"
    ],
    "vendored_frameworks": "MeetingDoctorsCore.xcframework"
  },
  "pod_target_xcconfig": {
    "BUILD_LIBRARY_FOR_DISTRIBUTION": "YES"
  },
  "user_target_xcconfig": {
    "BUILD_LIBRARY_FOR_DISTRIBUTION": "YES"
  },
  "swift_version": "5.7"
}
