{
  "name": "MeetingDoctors-Remote",
  "version": "5.0.0-rc.1",
  "summary": "MeetingDoctorsSDK Remote Framework for iOS",
  "authors": {
    "MeetingDoctors, S.L.": "info@meetingdoctors.com"
  },
  "license": {
    "type": "Copyright",
    "text": "Copyright © 2022 MeetingDoctors S.L. All rights reserved."
  },
  "source": {
    "http": "https://sdk-download.meetingdoctors.com/iOS/MeetingDoctorsSDK/5.0.0-rc.1/MeetingDoctorsSDK_5.0.0-rc.1.zip"
  },
  "homepage": "https://www.meetingdoctors.com",
  "platforms": {
    "ios": "11.0"
  },
  "swift_versions": "5.5",
  "module_name": "MeetingDoctorsRemote",
  "ios": {
    "frameworks": [
      "Foundation",
      "UIKit"
    ],
    "vendored_frameworks": "MeetingDoctors/MeetingDoctorsRemote.xcframework",
    "dependencies": {
      "MeetingDoctors-Core": [
        "5.0.0-rc.1"
      ],
      "MeetingDoctors-Schema": [
        "5.0.0-rc.1"
      ],
      "MeetingDoctors-Controller": [
        "5.0.0-rc.1"
      ],
      "Alamofire": [
        "~> 4.8"
      ]
    }
  },
  "pod_target_xcconfig": {
    "EXCLUDED_ARCHS[sdk=iphonesimulator*]": "arm64",
    "BUILD_LIBRARY_FOR_DISTRIBUTION": "YES"
  },
  "user_target_xcconfig": {
    "EXCLUDED_ARCHS[sdk=iphonesimulator*]": "arm64",
    "BUILD_LIBRARY_FOR_DISTRIBUTION": "YES"
  },
  "swift_version": "5.5"
}
