{
  "name": "MeetingDoctorsSDK",
  "version": "6.1.6-beta.4",
  "summary": "MeetingDoctorsSDK Framework for iOS",
  "authors": {
    "MeetingDoctors, S.L.": "info@meetingdoctors.com"
  },
  "license": {
    "type": "Copyright",
    "text": "Copyright © 2022 MeetingDoctors S.L. All rights reserved."
  },
  "source": {
    "http": "https://sdk-download.meetingdoctors.com/iOS/MeetingDoctorsSDK/6.1.6-beta.4/MeetingDoctorsSDK.xcframework.zip"
  },
  "homepage": "https://www.meetingdoctors.com",
  "platforms": {
    "ios": "13.0"
  },
  "swift_versions": "5.7",
  "module_name": "MeetingDoctorsSDK",
  "ios": {
    "frameworks": [
      "Foundation",
      "CoreLocation",
      "UIKit",
      "Photos",
      "StoreKit"
    ],
    "vendored_frameworks": "MeetingDoctorsSDK.xcframework",
    "dependencies": {
      "OTXCFramework": [
        "2.27.2"
      ],
      "lottie-ios": [
        "~> 4.4.0"
      ],
      "RxBlocking": [
        "6.5.0"
      ],
      "RxSwift": [
        "6.5.0"
      ],
      "Socket.IO-Client-Swift": [
        "15.2.0"
      ],
      "RealmSwift": [
        "10.17.0"
      ]
    }
  },
  "pod_target_xcconfig": {
    "BUILD_LIBRARY_FOR_DISTRIBUTION": "YES"
  },
  "user_target_xcconfig": {
    "BUILD_LIBRARY_FOR_DISTRIBUTION": "YES"
  },
  "swift_version": "5.7"
}
