{
  "name": "MeetingDoctors-Schema",
  "version": "4.0.4-beta.17",
  "summary": "MeetingDoctorsSDK Schema Framework for iOS",
  "authors": {
    "MeetingDoctors, S.L.": "info@meetingdoctors.com"
  },
  "license": {
    "type": "Copyright",
    "text": "Copyright © 2022 MeetingDoctors S.L. All rights reserved."
  },
  "source": {
    "http": "https://sdk-download.meetingdoctors.com/iOS/MeetingDoctorsSDK/4.0.4-beta.17/MeetingDoctorsSDK_4.0.4-beta.17.zip"
  },
  "homepage": "https://www.meetingdoctors.com",
  "platforms": {
    "ios": "11.0"
  },
  "swift_versions": "5.5",
  "module_name": "MeetingDoctorsSchema",
  "ios": {
    "frameworks": [
      "Foundation",
      "UIKit",
      "AdSupport"
    ],
    "vendored_frameworks": "MeetingDoctors/MeetingDoctorsSchema.xcframework",
    "dependencies": {
      "MeetingDoctors-Core": [
        "4.0.4-beta.17"
      ]
    }
  },
  "pod_target_xcconfig": {
    "EXCLUDED_ARCHS[sdk=iphonesimulator*]": "arm64",
    "BUILD_LIBRARY_FOR_DISTRIBUTION": "YES"
  },
  "user_target_xcconfig": {
    "EXCLUDED_ARCHS[sdk=iphonesimulator*]": "arm64",
    "BUILD_LIBRARY_FOR_DISTRIBUTION": "YES"
  },
  "swift_version": "5.5"
}
