{
  "name": "MeetingDoctors-Core",
  "version": "5.4.0",
  "summary": "MeetingDoctorsSDK Core Framework for iOS",
  "authors": {
    "MeetingDoctors, S.L.": "info@meetingdoctors.com"
  },
  "license": {
    "type": "Copyright",
    "text": "Copyright © 2022 MeetingDoctors S.L. All rights reserved."
  },
  "source": {
    "http": "https://sdk-download.meetingdoctors.com/iOS/MeetingDoctorsSDK/5.4.0/MeetingDoctorsSDK_5.4.0.zip"
  },
  "homepage": "https://www.meetingdoctors.com",
  "platforms": {
    "ios": "13.0"
  },
  "swift_versions": "5.7",
  "module_name": "MeetingDoctorsCore",
  "ios": {
    "frameworks": [
      "Foundation",
      "UIKit",
      "CoreLocation",
      "AVFoundation"
    ],
    "vendored_frameworks": "MeetingDoctors/MeetingDoctorsCore.xcframework",
    "dependencies": {
      "CryptoSwift": [
        "~> 1.0"
      ],
      "Firebase/Analytics": [
        "10.8.0"
      ]
    }
  },
  "pod_target_xcconfig": {
    "EXCLUDED_ARCHS[sdk=iphonesimulator*]": "arm64",
    "BUILD_LIBRARY_FOR_DISTRIBUTION": "YES"
  },
  "user_target_xcconfig": {
    "EXCLUDED_ARCHS[sdk=iphonesimulator*]": "arm64",
    "BUILD_LIBRARY_FOR_DISTRIBUTION": "YES"
  },
  "swift_version": "5.7"
}
