{
  "name": "MeetingDoctors-Core",
  "version": "5.0.0-rc.1",
  "summary": "MeetingDoctorsSDK Core Framework for iOS",
  "authors": {
    "MeetingDoctors, S.L.": "info@meetingdoctors.com"
  },
  "license": {
    "type": "Copyright",
    "text": "Copyright © 2022 MeetingDoctors S.L. All rights reserved."
  },
  "source": {
    "http": "https://sdk-download.meetingdoctors.com/iOS/MeetingDoctorsSDK/5.0.0-rc.1/MeetingDoctorsSDK_5.0.0-rc.1.zip"
  },
  "homepage": "https://www.meetingdoctors.com",
  "platforms": {
    "ios": "11.0"
  },
  "swift_versions": "5.5",
  "module_name": "MeetingDoctorsCore",
  "ios": {
    "dependencies": {
      "CryptoSwift": [
        "~> 1.0"
      ]
    },
    "frameworks": [
      "Foundation",
      "UIKit",
      "CoreLocation",
      "AVFoundation"
    ],
    "vendored_frameworks": "MeetingDoctors/MeetingDoctorsCore.xcframework"
  },
  "pod_target_xcconfig": {
    "EXCLUDED_ARCHS[sdk=iphonesimulator*]": "arm64",
    "BUILD_LIBRARY_FOR_DISTRIBUTION": "YES"
  },
  "user_target_xcconfig": {
    "EXCLUDED_ARCHS[sdk=iphonesimulator*]": "arm64",
    "BUILD_LIBRARY_FOR_DISTRIBUTION": "YES"
  },
  "swift_version": "5.5"
}
