{
  "name": "MeetingDoctorsSDK",
  "version": "4.2.6-beta.3",
  "summary": "MeetingDoctorsSDK Framework for iOS",
  "authors": {
    "MeetingDoctors, S.L.": "info@meetingdoctors.com"
  },
  "license": {
    "type": "Copyright",
    "text": "Copyright © 2022 MeetingDoctors S.L. All rights reserved."
  },
  "source": {
    "http": "https://sdk-download.meetingdoctors.com/iOS/MeetingDoctorsSDK/4.2.6-beta.3/MeetingDoctorsSDK_4.2.6-beta.3.zip"
  },
  "homepage": "https://www.meetingdoctors.com",
  "platforms": {
    "ios": "11.0"
  },
  "swift_versions": "5.5",
  "module_name": "MeetingDoctorsSDK",
  "ios": {
    "frameworks": [
      "Foundation",
      "CoreLocation",
      "UIKit",
      "Photos",
      "StoreKit"
    ],
    "vendored_frameworks": "MeetingDoctors/MeetingDoctorsSDK.xcframework",
    "dependencies": {
      "MeetingDoctors-Core": [
        "4.2.6-beta.3"
      ],
      "MeetingDoctors-Schema": [
        "4.2.6-beta.3"
      ],
      "MeetingDoctors-Controller": [
        "4.2.6-beta.3"
      ],
      "MeetingDoctors-Remote": [
        "4.2.6-beta.3"
      ],
      "MeetingDoctors-Socket": [
        "4.2.6-beta.3"
      ],
      "MeetingDoctors-Storage": [
        "4.2.6-beta.3"
      ],
      "R.swift": [
        "5.1.0"
      ],
      "Swinject": [
        "2.6.0"
      ],
      "SwinjectStoryboard": [
        "2.2.0"
      ],
      "RxCocoa": [
        "6.5.0"
      ],
      "SDWebImage": [
        "5.0"
      ],
      "OpenTok": [
        "2.22.3"
      ]
    }
  },
  "pod_target_xcconfig": {
    "EXCLUDED_ARCHS[sdk=iphonesimulator*]": "arm64",
    "BUILD_LIBRARY_FOR_DISTRIBUTION": "YES"
  },
  "user_target_xcconfig": {
    "EXCLUDED_ARCHS[sdk=iphonesimulator*]": "arm64",
    "BUILD_LIBRARY_FOR_DISTRIBUTION": "YES"
  },
  "swift_version": "5.5"
}
