{
  "name": "MeetingDoctorsEmmaSDK",
  "version": "4.1.2",
  "summary": "MeetingDoctorsEmmaSDK Framework for iOS",
  "authors": {
    "MeetingDoctors, S.L.": "info@meetingdoctors.com"
  },
  "license": {
    "type": "Copyright",
    "text": "Copyright © 2022 MeetingDoctors S.L. All rights reserved."
  },
  "source": {
    "http": "https://sdk-download.meetingdoctors.com/iOS/MeetingDoctorsEmmaSDK/4.1.2/MeetingDoctorsEmmaSDK_4.1.2.zip"
  },
  "homepage": "https://www.meetingdoctors.com/",
  "platforms": {
    "ios": "11.0"
  },
  "swift_versions": "5.5",
  "module_name": "MeetingDoctorsEmmaSDK",
  "ios": {
    "frameworks": [
      "Foundation",
      "UIKit"
    ],
    "vendored_frameworks": "MeetingDoctors/MeetingDoctorsEmmaSDK.xcframework",
    "dependencies": {
      "eMMa": [
        "~> 4.9"
      ],
      "MeetingDoctorsSDK": [
        "~> 4.0"
      ]
    }
  },
  "pod_target_xcconfig": {
    "EXCLUDED_ARCHS[sdk=iphonesimulator*]": "arm64",
    "BUILD_LIBRARY_FOR_DISTRIBUTION": "YES"
  },
  "user_target_xcconfig": {
    "EXCLUDED_ARCHS[sdk=iphonesimulator*]": "arm64",
    "BUILD_LIBRARY_FOR_DISTRIBUTION": "YES"
  },
  "swift_version": "5.5"
}
