{
  "name": "MeetingDoctors-Controller",
  "version": "4.0.6",
  "summary": "MeetingDoctorsSDK Controller Framework for iOS",
  "authors": {
    "MeetingDoctors, S.L.": "info@meetingdoctors.com"
  },
  "license": {
    "type": "Copyright",
    "text": "Copyright © 2022 MeetingDoctors S.L. All rights reserved."
  },
  "source": {
    "http": "https://meetingdoctors.jfrog.io/artifactory/iOS/legacy-library/4.0.6/MeetingDoctorsSDK_4.0.6.zip"
  },
  "homepage": "https://www.meetingdoctors.com",
  "platforms": {
    "ios": "11.0"
  },
  "swift_versions": "5.5",
  "module_name": "MeetingDoctorsController",
  "ios": {
    "frameworks": [
      "Foundation",
      "CoreLocation",
      "UIKit",
      "Photos",
      "AdSupport"
    ],
    "vendored_frameworks": "MeetingDoctors/MeetingDoctorsController.xcframework",
    "dependencies": {
      "MeetingDoctors-Core": [
        "4.0.6"
      ],
      "MeetingDoctors-Schema": [
        "4.0.6"
      ],
      "RxBlocking": [
        "6.2.0"
      ],
      "RxSwift": [
        "6.2.0"
      ],
      "SwiftDate": [
        "4.5.1"
      ]
    }
  },
  "pod_target_xcconfig": {
    "EXCLUDED_ARCHS[sdk=iphonesimulator*]": "arm64",
    "BUILD_LIBRARY_FOR_DISTRIBUTION": "YES"
  },
  "user_target_xcconfig": {
    "EXCLUDED_ARCHS[sdk=iphonesimulator*]": "arm64",
    "BUILD_LIBRARY_FOR_DISTRIBUTION": "YES"
  },
  "swift_version": "5.5"
}
