{
  "name": "MDChatSDK",
  "version": "1.0.0-carrefour.beta.2",
  "summary": "MDChatSDK Framework for iOS",
  "authors": {
    "MeetingDoctors, S.L.": "info@meetingdoctors.com"
  },
  "license": {
    "type": "Copyright",
    "text": "Copyright © 2022 MeetingDoctors S.L. All rights reserved."
  },
  "source": {
    "http": "https://sdk-download.meetingdoctors.com/iOS/MDChatSDK/1.0.0-carrefour.beta.2/MDChatSDK_1.0.0-carrefour.beta.2.zip"
  },
  "homepage": "https://www.meetingdoctors.com",
  "platforms": {
    "ios": "13.0"
  },
  "swift_versions": "5.7",
  "module_name": "MDChatSDK",
  "ios": {
    "frameworks": [
      "Foundation",
      "CoreLocation",
      "UIKit",
      "Photos",
      "StoreKit",
      "AVFoundation",
      "AdSupport"
    ],
    "vendored_frameworks": "MeetingDoctors/MDChatSDK.xcframework",
    "dependencies": {
      "RxBlocking": [
        "6.5.0"
      ],
      "RxSwift": [
        "6.5.0"
      ],
      "Socket.IO-Client-Swift": [
        "15.2.0"
      ],
      "RealmSwift": [
        "10.17.0"
      ]
    }
  },
  "swift_version": "5.7"
}
