{
  "name": "MeetingDoctors-Socket",
  "version": "5.1.0",
  "summary": "MeetingDoctorsSDK Socket Framework for iOS",
  "authors": {
    "MeetingDoctors, S.L.": "info@meetingdoctors.com"
  },
  "license": {
    "type": "Copyright",
    "text": "Copyright © 2022 MeetingDoctors S.L. All rights reserved."
  },
  "source": {
    "http": "https://sdk-download.meetingdoctors.com/iOS/MeetingDoctorsSDK/5.1.0/MeetingDoctorsSDK_5.1.0.zip"
  },
  "homepage": "https://www.meetingdoctors.com",
  "platforms": {
    "ios": "11.0"
  },
  "swift_versions": "5.5",
  "module_name": "MeetingDoctorsSocket",
  "ios": {
    "frameworks": [
      "Foundation",
      "UIKit"
    ],
    "vendored_frameworks": "MeetingDoctors/MeetingDoctorsSocket.xcframework",
    "dependencies": {
      "MeetingDoctors-Core": [
        "5.1.0"
      ],
      "MeetingDoctors-Schema": [
        "5.1.0"
      ],
      "MeetingDoctors-Controller": [
        "5.1.0"
      ],
      "Socket.IO-Client-Swift": [
        "15.2.0"
      ]
    }
  },
  "pod_target_xcconfig": {
    "EXCLUDED_ARCHS[sdk=iphonesimulator*]": "arm64",
    "BUILD_LIBRARY_FOR_DISTRIBUTION": "YES"
  },
  "user_target_xcconfig": {
    "EXCLUDED_ARCHS[sdk=iphonesimulator*]": "arm64",
    "BUILD_LIBRARY_FOR_DISTRIBUTION": "YES"
  },
  "swift_version": "5.5"
}
