{
  "name": "MeetingDoctors-Controller",
  "version": "5.5.7-beta.9",
  "summary": "MeetingDoctorsSDK Controller Framework for iOS",
  "authors": {
    "MeetingDoctors, S.L.": "info@meetingdoctors.com"
  },
  "license": {
    "type": "Copyright",
    "text": "Copyright © 2022 MeetingDoctors S.L. All rights reserved."
  },
  "source": {
    "http": "https://sdk-download.meetingdoctors.com/iOS/MeetingDoctorsSDK/5.5.7-beta.9/MeetingDoctorsController.xcframework.zip"
  },
  "homepage": "https://www.meetingdoctors.com",
  "platforms": {
    "ios": "13.0"
  },
  "swift_versions": "5.7",
  "module_name": "MeetingDoctorsController",
  "ios": {
    "frameworks": [
      "Foundation",
      "CoreLocation",
      "UIKit",
      "Photos"
    ],
    "vendored_frameworks": "MeetingDoctorsController.xcframework",
    "dependencies": {
      "MeetingDoctors-Core": [
        "5.5.7-beta.9"
      ],
      "MeetingDoctors-Schema": [
        "5.5.7-beta.9"
      ],
      "RxBlocking": [
        "6.5.0"
      ],
      "RxSwift": [
        "6.5.0"
      ]
    }
  },
  "pod_target_xcconfig": {
    "BUILD_LIBRARY_FOR_DISTRIBUTION": "YES"
  },
  "user_target_xcconfig": {
    "BUILD_LIBRARY_FOR_DISTRIBUTION": "YES"
  },
  "swift_version": "5.7"
}
