{
  "name": "MeetingDoctorsSDK",
  "version": "5.4.6-beta.2",
  "summary": "MeetingDoctorsSDK Framework for iOS",
  "authors": {
    "MeetingDoctors, S.L.": "info@meetingdoctors.com"
  },
  "license": {
    "type": "Copyright",
    "text": "Copyright © 2022 MeetingDoctors S.L. All rights reserved."
  },
  "source": {
    "http": "https://sdk-download.meetingdoctors.com/iOS/MeetingDoctorsSDK/5.4.6-beta.2/MeetingDoctorsSDK_5.4.6-beta.2.zip"
  },
  "homepage": "https://www.meetingdoctors.com",
  "platforms": {
    "ios": "13.0"
  },
  "swift_versions": "5.7",
  "module_name": "MeetingDoctorsSDK",
  "ios": {
    "frameworks": [
      "Foundation",
      "CoreLocation",
      "UIKit",
      "Photos",
      "StoreKit"
    ],
    "vendored_frameworks": "MeetingDoctors/MeetingDoctorsSDK.xcframework",
    "dependencies": {
      "MeetingDoctors-Core": [
        "5.4.6-beta.2"
      ],
      "MeetingDoctors-Schema": [
        "5.4.6-beta.2"
      ],
      "MeetingDoctors-Controller": [
        "5.4.6-beta.2"
      ],
      "MeetingDoctors-Remote": [
        "5.4.6-beta.2"
      ],
      "MeetingDoctors-Socket": [
        "5.4.6-beta.2"
      ],
      "MeetingDoctors-Storage": [
        "5.4.6-beta.2"
      ],
      "OTXCFramework": [
        "2.26.1"
      ],
      "lottie-ios": [
        "4.3.0"
      ]
    }
  },
  "pod_target_xcconfig": {
    "BUILD_LIBRARY_FOR_DISTRIBUTION": "YES"
  },
  "user_target_xcconfig": {
    "BUILD_LIBRARY_FOR_DISTRIBUTION": "YES"
  },
  "swift_version": "5.7"
}
